{
  "schemaVersion": 1,
  "id": "ytchat",
  "version": "${version}",
  "name": "Chat Bridge for YouTube",
  "description": "See your YouTube stream chat in Minecraft chat",
  "authors": [
    "Ali Furkan Yıldız"
  ],
  "contact": {
    "homepage": "https://hyron.xyz/ytchat/",
    "sources": "https://gitlab.com/hyron-devs/ytchat"
  },
  "license": "GPL-3.0",
  "icon": "assets/ytchat/icon.png",
  "environment": "*",
  "entrypoints": {
    "main": [
      "xyz.hyron.ytchat.YTChat"
    ]
  },
  "mixins": [],
  "depends": {
    "fabricloader": ">=0.14.6",
    "fabric": "*",
    "minecraft": "~1.19",
    "java": ">=17"
  },
  "suggests": {}
}
